<svg width="16" height="16" viewBox="0 0 16 16" fill="none" xmlns="http://www.w3.org/2000/svg">
<path d="M6 14H3.33333C2.97971 14 2.64057 13.8595 2.39052 13.6095C2.14048 13.3594 2 13.0203 2 12.6667V3.33333C2 2.97971 2.14048 2.64057 2.39052 2.39052C2.64057 2.14048 2.97971 2 3.33333 2H6" stroke="black" stroke-linecap="round" stroke-linejoin="round"/>
<path d="M9 4.66659L5.66667 7.99992L9 11.3333" stroke="black" stroke-linecap="round" stroke-linejoin="round"/>
<path d="M6 8L14 8" stroke="black" stroke-linecap="round" stroke-linejoin="round"/>
</svg>
